IIR_Filter/transcript
# vsim tb_biquad_iir -c -do "run -all" 
# Start time: 19:01:30 on Jul 02,2026
# ** Note: (vsim-3813) Design is being optimized due to module recompilation...
# //  Questa Sim-64
# //  Version 2021.1 win64 Jan 19 2021
# //
# //  Copyright 1991-2021 Mentor Graphics Corporation
# //  All Rights Reserved.
# //
# //  QuestaSim and its associated documentation contain trade
# //  secrets and commercial or financial information that are the property of
# //  Mentor Graphics Corporation and are privileged, confidential,
# //  and exempt from disclosure under the Freedom of Information Act,
# //  5 U.S.C. Section 552. Furthermore, this information
# //  is prohibited from disclosure under the Trade Secrets Act,
# //  18 U.S.C. Section 1905.
# //
# Loading sv_std.std
# Loading work.tb_biquad_iir(fast)
# run -all
# =========================================
#  Biquad IIR Filter Testbench
#  Format  : Q15.16   TOL = 2.5 LSBs
#  Coeffs  : LPF Butterworth fc=8kHz fs=48kHz
# =========================================
# 
# [TEST 1] Reset
#   PASS y=0 while rst_n=0              | y = 0
# 
# [TEST 2] Zero input
#   PASS cycle 1: y=0                   | y = 0
#   PASS cycle 2: y=0                   | y = 0
#   PASS cycle 3: y=0                   | y = 0
# 
# [TEST 3] All-pass (b0=1, rest=0)
#   PASS x= 0.50 → y should be 0.00   | x= 0.5000  y=  0.500000  exp=  0.500000
#   PASS x=-0.25 → y should be 0.50   | x=-0.2500  y= -0.250000  exp= -0.250000
#   PASS x= 0.75 → y should be -0.25  | x= 0.7500  y=  0.750000  exp=  0.750000
#   PASS x=-1.00 → y should be 0.75   | x=-1.0000  y= -1.000000  exp= -1.000000
#   PASS x= 0.00 → y should be -1.00  | x= 0.0000  y=  0.000000  exp=  0.000000
# 
# [TEST 4] Impulse response
#   PASS h[0]  x=1 (impulse)            | x= 1.0000  y=  0.155045  exp=  0.155045
#   PASS h[1]  x=0                      | x= 0.0000  y=  0.310089  exp=  0.310089
#   PASS h[2]  x=0                      | x= 0.0000  y=  0.251190  exp=  0.251198
#   PASS h[3]  x=0                      | x= 0.0000  y=  0.155045  exp=  0.155042
#   PASS h[4]  x=0                      | x= 0.0000  y=  0.081253  exp=  0.081252
#   PASS h[5]  x=0                      | x= 0.0000  y=  0.035782  exp=  0.035782
#   PASS h[6]  x=0                      | x= 0.0000  y=  0.013123  exp=  0.013127
#   PASS h[7]  x=0                      | x= 0.0000  y=  0.002655  exp=  0.002662
#   PASS h[8]  x=0                      | x= 0.0000  y= -0.000458  exp= -0.000462
#   PASS h[9]  x=0                      | x= 0.0000  y= -0.001511  exp= -0.001507
#   PASS h[10] x=0                      | x= 0.0000  y= -0.000916  exp= -0.000922
# 
# [TEST 5] Step response
#   PASS step[0]                        | x= 1.0000  y=  0.155045  exp=  0.155045
#   PASS step[1]                        | x= 1.0000  y=  0.465134  exp=  0.465134
#   PASS step[2]                        | x= 1.0000  y=  0.716324  exp=  0.716332
#   PASS step[3]                        | x= 1.0000  y=  0.871368  exp=  0.871374
#   PASS step[4]                        | x= 1.0000  y=  0.952621  exp=  0.952626
#   PASS step[5]                        | x= 1.0000  y=  0.988403  exp=  0.988407
#   PASS step[6]                        | x= 1.0000  y=  1.001526  exp=  1.001534
#   PASS step[7]                        | x= 1.0000  y=  1.004196  exp=  1.004196
#   PASS step[8]                        | x= 1.0000  y=  1.003738  exp=  1.003734
#   PASS step[9]                        | x= 1.0000  y=  1.002243  exp=  1.002237
#   PASS step[10]                       | x= 1.0000  y=  1.001312  exp=  1.001311
#   PASS step[11]                       | x= 1.0000  y=  1.000488  exp=  1.000494
#   PASS step[12]                       | x= 1.0000  y=  1.000275  exp=  1.000276
#   PASS step[13]                       | x= 1.0000  y=  0.999985  exp=  0.999988
#   PASS step[14]                       | x= 1.0000  y=  1.000046  exp=  1.000054
# 
# [TEST 6] Saturation — positive
#   PASS y = MAX_POS (no wrap)          | y = 2147483647
# 
# [TEST 7] Saturation — negative
#   PASS y = MIN_NEG (no wrap)          | y = -2147483648
# 
# [TEST 8] Mid-run reset
#   PASS y=0 immediately after rst      | y = 0
#   PASS y=0 after rst + x=0            | y = 0
# 
# =========================================
#  PASS: 39   FAIL: 0   TOTAL: 39
# =========================================
# ** Note: $finish    : Biquad_IIR_tb.sv(327)
#    Time: 696 ns  Iteration: 0  Instance: /tb_biquad_iir
# End time: 19:01:33 on Jul 02,2026, Elapsed time: 0:00:03
# Errors: 0, Warnings: 0
